{
  "images" : [
    {
      "filename" : "portrait-of-female-high-fashion-model-in-neon-ligh-2021-08-26-17-43-02-utc 1.pdf",
      "idiom" : "universal"
    }
  ],
  "info" : {
    "author" : "xcode",
    "version" : 1
  }
}
